country;strata_set;stratum;cluster_configuration;panel;label;comment
CZ;CZ-STS-SNIL1;CZ-SNIL1;2p-r;y1_s1;The 1st season of the 1st survey year of the Czech NFI1 grid.;This panel was abandoned after NFI2 survey in spring 2011.
CZ;CZ-STS-SNIL1;CZ-SNIL1;2p-r;y1_s2;The 2nd season of the 1st survey year of the Czech NFI1 grid.;This panel was abandoned after NFI2 survey in autumn 2011.
CZ;CZ-STS-SNIL1;CZ-SNIL1;2p-r;y2_s1;The 1st season of the 2nd survey year of the Czech NFI1 grid.;This panel was abandoned after NFI2 survey in spring 2012.
CZ;CZ-STS-SNIL1;CZ-SNIL1;2p-r;y2_s2;The 2nd season of the 2nd survey year of the Czech NFI1 grid.;This panel was abandoned after NFI2 survey in autumn 2012.
CZ;CZ-STS-SNIL1;CZ-SNIL1;2p-r;y3_s1;The 1st season of the 3rd survey year of the Czech NFI1 grid.;This panel was abandoned after NFI2 survey in spring 2013.
CZ;CZ-STS-SNIL1;CZ-SNIL1;2p-r;y3_s2;The 2nd season of the 3rd survey year of the Czech NFI1 grid.;This panel was abandoned after NFI2 survey in autumn 2013.
CZ;CZ-STS-SNIL1;CZ-SNIL1;2p-r;y4_s1;The 1st season of the 4th survey year of the Czech NFI1 grid.;This panel was abandoned after NFI2 survey in spring 2014.
CZ;CZ-STS-SNIL1;CZ-SNIL1;2p-r;y4_s2;The 2nd season of the 4th survey year of the Czech NFI1 grid.;This panel was abandoned after NFI2 survey in autumn 2014.
CZ;CZ-STS-SNIL2;CZ-SNIL2;1p;y1_s1_s2a;The 1st season of the 1st survey year of the Czech NFI2 s2a sub-grid.;The first time, this panel was surveyed in spring season of 2011.
CZ;CZ-STS-SNIL2;CZ-SNIL2;1p;y1_s1_s2b;The 1st season of the 1st survey year of the Czech NFI2 s2b sub-grid.;The first time, this panel was surveyed in spring season of 2016.
CZ;CZ-STS-SNIL2;CZ-SNIL2;1p;y1_s2_s2a;The 2nd season of the 1st survey year of the Czech NFI2 s2a sub-grid.;The first time, this panel was surveyed in autumn season of 2011.
CZ;CZ-STS-SNIL2;CZ-SNIL2;1p;y1_s2_s2b;The 2nd season of the 1st survey year of the Czech NFI2 s2b sub-grid.;The first time, this panel was surveyed in autumn season of 2016.
CZ;CZ-STS-SNIL2;CZ-SNIL2;1p;y2_s1_s2a;The 1st season of the 2nd survey year of the Czech NFI2 s2a sub-grid.;The first time, this panel was surveyed in spring season of 2012.
CZ;CZ-STS-SNIL2;CZ-SNIL2;1p;y2_s1_s2b;The 1st season of the 2nd survey year of the Czech NFI2 s2b sub-grid.;The first time, this panel was surveyed in spring season of 2017.
CZ;CZ-STS-SNIL2;CZ-SNIL2;1p;y2_s2_s2a;The 2nd season of the 2nd survey year of the Czech NFI2 s2a sub-grid.;The first time, this panel was surveyed in autumn season of 2012.
CZ;CZ-STS-SNIL2;CZ-SNIL2;1p;y2_s2_s2b;The 2nd season of the 2nd survey year of the Czech NFI2 s2b sub-grid.;The first time, this panel was surveyed in autumn season of 2017.
CZ;CZ-STS-SNIL2;CZ-SNIL2;1p;y3_s1_s2a;The 1st season of the 3rd survey year of the Czech NFI2 s2a sub-grid.;The first time, this panel was surveyed in spring season of 2013.
CZ;CZ-STS-SNIL2;CZ-SNIL2;1p;y3_s1_s2b;The 1st season of the 3rd survey year of the Czech NFI2 s2b sub-grid.;The first time, this panel was surveyed in spring season of 2018.
CZ;CZ-STS-SNIL2;CZ-SNIL2;1p;y3_s2_s2a;The 2nd season of the 3rd survey year of the Czech NFI2 s2a sub-grid.;The first time, this panel was surveyed in autumn season of 2013.
CZ;CZ-STS-SNIL2;CZ-SNIL2;1p;y3_s2_s2b;The 2nd season of the 3rd survey year of the Czech NFI2 s2b sub-grid.;The first time, this panel was surveyed in autumn season of 2018.
CZ;CZ-STS-SNIL2;CZ-SNIL2;1p;y4_s1_s2a;The 1st season of the 4th survey year of the Czech NFI2 s2a sub-grid.;The first time, this panel was surveyed in spring season of 2014.
CZ;CZ-STS-SNIL2;CZ-SNIL2;1p;y4_s1_s2b;The 1st season of the 4th survey year of the Czech NFI2 s2b sub-grid.;The first time, this panel was surveyed in spring season of 2019.
CZ;CZ-STS-SNIL2;CZ-SNIL2;1p;y4_s2_s2a;The 2nd season of the 4th survey year of the Czech NFI2 s2a sub-grid.;The first time, this panel was surveyed in autumn season of 2014.
CZ;CZ-STS-SNIL2;CZ-SNIL2;1p;y4_s2_s2b;The 2nd season of the 4th survey year of the Czech NFI2 s2b sub-grid.;The first time, this panel was surveyed in autumn season of 2019.
CZ;CZ-STS-SNIL2;CZ-SNIL2;1p;y5_s1_s2a;The 1st season of the 5th survey year of the Czech NFI2 s2a sub-grid.;The first time, this panel was surveyed in spring season of 2015.
CZ;CZ-STS-SNIL2;CZ-SNIL2;1p;y5_s1_s2b;The 1st season of the 5th survey year of the Czech NFI2 s2b sub-grid.;The first time, this panel was surveyed in spring season of 2020.
CZ;CZ-STS-SNIL2;CZ-SNIL2;1p;y5_s2_s2a;The 2nd season of the 5th survey year of the Czech NFI2 s2a sub-grid.;The first time, this panel was surveyed in autumn season of 2015.
CZ;CZ-STS-SNIL2;CZ-SNIL2;1p;y5_s2_s2b;The 2nd season of the 5th survey year of the Czech NFI2 s2b sub-grid.;The first time, this panel was surveyed in autumn season of 2020.
