country;inventory_campaign;reference_year_set;strata_set;stratum;panel;comment
CZ;CZ-NFI1(2001-2004);2001-2004;CZ-STS-SNIL1;CZ-SNIL1;y1_s1;
CZ;CZ-NFI1(2001-2004);2001-2004;CZ-STS-SNIL1;CZ-SNIL1;y1_s2;
CZ;CZ-NFI1(2001-2004);2001-2004;CZ-STS-SNIL1;CZ-SNIL1;y2_s1;
CZ;CZ-NFI1(2001-2004);2001-2004;CZ-STS-SNIL1;CZ-SNIL1;y2_s2;
CZ;CZ-NFI1(2001-2004);2001-2004;CZ-STS-SNIL1;CZ-SNIL1;y3_s1;
CZ;CZ-NFI1(2001-2004);2001-2004;CZ-STS-SNIL1;CZ-SNIL1;y3_s2;
CZ;CZ-NFI1(2001-2004);2001-2004;CZ-STS-SNIL1;CZ-SNIL1;y4_s1;
CZ;CZ-NFI1(2001-2004);2001-2004;CZ-STS-SNIL1;CZ-SNIL1;y4_s2;
CZ;CZ-NFI2(2011-2015);2011-1;CZ-STS-SNIL1;CZ-SNIL1;y1_s1;
CZ;CZ-NFI2(2011-2015);2011-2;CZ-STS-SNIL1;CZ-SNIL1;y1_s2;
CZ;CZ-NFI2(2011-2015);2012-1;CZ-STS-SNIL1;CZ-SNIL1;y2_s1;
CZ;CZ-NFI2(2011-2015);2012-2;CZ-STS-SNIL1;CZ-SNIL1;y2_s2;
CZ;CZ-NFI2(2011-2015);2013-1;CZ-STS-SNIL1;CZ-SNIL1;y3_s1;
CZ;CZ-NFI2(2011-2015);2013-2;CZ-STS-SNIL1;CZ-SNIL1;y3_s2;
CZ;CZ-NFI2(2011-2015);2014-1;CZ-STS-SNIL1;CZ-SNIL1;y4_s1;
CZ;CZ-NFI2(2011-2015);2014-2;CZ-STS-SNIL1;CZ-SNIL1;y4_s2;
CZ;CZ-NFI2(2011-2015);2011-1;CZ-STS-SNIL2;CZ-SNIL2;y1_s1_s2a;
CZ;CZ-NFI2(2011-2015);2011-2;CZ-STS-SNIL2;CZ-SNIL2;y1_s2_s2a;
CZ;CZ-NFI2(2011-2015);2012-1;CZ-STS-SNIL2;CZ-SNIL2;y2_s1_s2a;
CZ;CZ-NFI2(2011-2015);2012-2;CZ-STS-SNIL2;CZ-SNIL2;y2_s2_s2a;
CZ;CZ-NFI2(2011-2015);2013-1;CZ-STS-SNIL2;CZ-SNIL2;y3_s1_s2a;
CZ;CZ-NFI2(2011-2015);2013-2;CZ-STS-SNIL2;CZ-SNIL2;y3_s2_s2a;
CZ;CZ-NFI2(2011-2015);2014-1;CZ-STS-SNIL2;CZ-SNIL2;y4_s1_s2a;
CZ;CZ-NFI2(2011-2015);2014-2;CZ-STS-SNIL2;CZ-SNIL2;y4_s2_s2a;
CZ;CZ-NFI2(2011-2015);2015-1;CZ-STS-SNIL2;CZ-SNIL2;y5_s1_s2a;
CZ;CZ-NFI2(2011-2015);2015-2;CZ-STS-SNIL2;CZ-SNIL2;y5_s2_s2a;
CZ;CZ-NFI2(2011-2015);2011-1;CZ-STS-SNIL2;CZ-SNIL2;y1_s1_s2b;
CZ;CZ-NFI2(2011-2015);2011-2;CZ-STS-SNIL2;CZ-SNIL2;y1_s2_s2b;
CZ;CZ-NFI2(2011-2015);2012-1;CZ-STS-SNIL2;CZ-SNIL2;y2_s1_s2b;
CZ;CZ-NFI2(2011-2015);2012-2;CZ-STS-SNIL2;CZ-SNIL2;y2_s2_s2b;
CZ;CZ-NFI2(2011-2015);2013-1;CZ-STS-SNIL2;CZ-SNIL2;y3_s1_s2b;
CZ;CZ-NFI2(2011-2015);2013-2;CZ-STS-SNIL2;CZ-SNIL2;y3_s2_s2b;
CZ;CZ-NFI2(2011-2015);2014-1;CZ-STS-SNIL2;CZ-SNIL2;y4_s1_s2b;
CZ;CZ-NFI2(2011-2015);2014-2;CZ-STS-SNIL2;CZ-SNIL2;y4_s2_s2b;
CZ;CZ-NFI2(2011-2015);2015-1;CZ-STS-SNIL2;CZ-SNIL2;y5_s1_s2b;
CZ;CZ-NFI2(2011-2015);2015-2;CZ-STS-SNIL2;CZ-SNIL2;y5_s2_s2b;
CZ;CZ-NFI2/NFI1;2011-1/2001-2004;CZ-STS-SNIL1;CZ-SNIL1;y1_s1;
CZ;CZ-NFI2/NFI1;2011-2/2001-2004;CZ-STS-SNIL1;CZ-SNIL1;y1_s2;
CZ;CZ-NFI2/NFI1;2012-1/2001-2004;CZ-STS-SNIL1;CZ-SNIL1;y2_s1;
CZ;CZ-NFI2/NFI1;2012-2/2001-2004;CZ-STS-SNIL1;CZ-SNIL1;y2_s2;
CZ;CZ-NFI2/NFI1;2013-1/2001-2004;CZ-STS-SNIL1;CZ-SNIL1;y3_s1;
CZ;CZ-NFI2/NFI1;2013-2/2001-2004;CZ-STS-SNIL1;CZ-SNIL1;y3_s2;
CZ;CZ-NFI2/NFI1;2014-1/2001-2004;CZ-STS-SNIL1;CZ-SNIL1;y4_s1;
CZ;CZ-NFI2/NFI1;2014-2/2001-2004;CZ-STS-SNIL1;CZ-SNIL1;y4_s2;
CZ;CZ-NFI3(2016-2020);2016-1;CZ-STS-SNIL2;CZ-SNIL2;y1_s1_s2a;
CZ;CZ-NFI3(2016-2020);2016-2;CZ-STS-SNIL2;CZ-SNIL2;y1_s2_s2a;
CZ;CZ-NFI3(2016-2020);2017-1;CZ-STS-SNIL2;CZ-SNIL2;y2_s1_s2a;
CZ;CZ-NFI3(2016-2020);2017-2;CZ-STS-SNIL2;CZ-SNIL2;y2_s2_s2a;
CZ;CZ-NFI3(2016-2020);2018-1;CZ-STS-SNIL2;CZ-SNIL2;y3_s1_s2a;
CZ;CZ-NFI3(2016-2020);2018-2;CZ-STS-SNIL2;CZ-SNIL2;y3_s2_s2a;
CZ;CZ-NFI3(2016-2020);2019-1;CZ-STS-SNIL2;CZ-SNIL2;y4_s1_s2a;
CZ;CZ-NFI3(2016-2020);2019-2;CZ-STS-SNIL2;CZ-SNIL2;y4_s2_s2a;
CZ;CZ-NFI3(2016-2020);2020-1;CZ-STS-SNIL2;CZ-SNIL2;y5_s1_s2a;
CZ;CZ-NFI3(2016-2020);2020-2;CZ-STS-SNIL2;CZ-SNIL2;y5_s2_s2a;
CZ;CZ-NFI3(2016-2020);2016-1;CZ-STS-SNIL2;CZ-SNIL2;y1_s1_s2b;
CZ;CZ-NFI3(2016-2020);2016-2;CZ-STS-SNIL2;CZ-SNIL2;y1_s2_s2b;
CZ;CZ-NFI3(2016-2020);2017-1;CZ-STS-SNIL2;CZ-SNIL2;y2_s1_s2b;
CZ;CZ-NFI3(2016-2020);2017-2;CZ-STS-SNIL2;CZ-SNIL2;y2_s2_s2b;
CZ;CZ-NFI3(2016-2020);2018-1;CZ-STS-SNIL2;CZ-SNIL2;y3_s1_s2b;
CZ;CZ-NFI3(2016-2020);2018-2;CZ-STS-SNIL2;CZ-SNIL2;y3_s2_s2b;
CZ;CZ-NFI3(2016-2020);2019-1;CZ-STS-SNIL2;CZ-SNIL2;y4_s1_s2b;
CZ;CZ-NFI3(2016-2020);2019-2;CZ-STS-SNIL2;CZ-SNIL2;y4_s2_s2b;
CZ;CZ-NFI3(2016-2020);2020-1;CZ-STS-SNIL2;CZ-SNIL2;y5_s1_s2b;
CZ;CZ-NFI3(2016-2020);2020-2;CZ-STS-SNIL2;CZ-SNIL2;y5_s2_s2b;
CZ;CZ-NFI3/NFI2;2016-1/2011-1;CZ-STS-SNIL2;CZ-SNIL2;y1_s1_s2a;
CZ;CZ-NFI3/NFI2;2016-2/2011-2;CZ-STS-SNIL2;CZ-SNIL2;y1_s2_s2a;
CZ;CZ-NFI3/NFI2;2017-1/2012-1;CZ-STS-SNIL2;CZ-SNIL2;y2_s1_s2a;
CZ;CZ-NFI3/NFI2;2017-2/2012-2;CZ-STS-SNIL2;CZ-SNIL2;y2_s2_s2a;
CZ;CZ-NFI3/NFI2;2018-1/2013-1;CZ-STS-SNIL2;CZ-SNIL2;y3_s1_s2a;
CZ;CZ-NFI3/NFI2;2018-2/2013-2;CZ-STS-SNIL2;CZ-SNIL2;y3_s2_s2a;
CZ;CZ-NFI3/NFI2;2019-1/2014-1;CZ-STS-SNIL2;CZ-SNIL2;y4_s1_s2a;
CZ;CZ-NFI3/NFI2;2019-2/2014-2;CZ-STS-SNIL2;CZ-SNIL2;y4_s2_s2a;
CZ;CZ-NFI3/NFI2;2020-1/2015-1;CZ-STS-SNIL2;CZ-SNIL2;y5_s1_s2a;
CZ;CZ-NFI3/NFI2;2020-2/2015-2;CZ-STS-SNIL2;CZ-SNIL2;y5_s2_s2a;
